<svg width="40" height="40" viewBox="0 0 40 40" fill="none" xmlns="http://www.w3.org/2000/svg">
<g id="Mobile / Search button">
<path id="Rectangle 4" d="M0 0H40V40H0V0Z" fill="#73E6C2"/>
<g id="icon-search">
<path id="Shape" fill-rule="evenodd" clip-rule="evenodd" d="M23.8558 22.4598L27.7218 26.2908C27.8998 26.4663 28 26.7051 28 26.9542C28 27.2034 27.8998 27.4422 27.7218 27.6176C27.5451 27.7945 27.3047 27.894 27.0539 27.894C26.8031 27.894 26.5627 27.7945 26.3861 27.6176L22.5296 23.7773C19.7642 25.8332 15.8697 25.4169 13.608 22.8237C11.3463 20.2305 11.4862 16.3419 13.9285 13.9158C16.3709 11.4896 20.2854 11.3506 22.8959 13.5973C25.5064 15.8441 25.9254 19.7128 23.8558 22.4598ZM18.5879 13.8728C15.9904 13.8728 13.8848 15.9645 13.8848 18.5447C13.8848 21.125 15.9904 23.2167 18.5879 23.2167C21.1853 23.2167 23.2909 21.125 23.2909 18.5447C23.2909 15.9645 21.1853 13.8728 18.5879 13.8728Z" fill="#212B32"/>
</g>
</g>
</svg>
