<svg width="41" height="41" viewBox="0 0 41 41" fill="none" xmlns="http://www.w3.org/2000/svg">
<path d="M29.4011 15.3749L21.9186 4.16818C21.594 3.68985 21.0473 3.45068 20.5006 3.45068C19.954 3.45068 19.4073 3.68985 19.0827 4.18527L11.6002 15.3749H3.41732C2.47773 15.3749 1.70898 16.1436 1.70898 17.0832C1.70898 17.2369 1.72607 17.3907 1.77732 17.5444L6.11648 33.3807C6.5094 34.8157 7.82482 35.8749 9.39648 35.8749H31.6048C33.1765 35.8749 34.4919 34.8157 34.9019 33.3807L39.2411 17.5444L39.2923 17.0832C39.2923 16.1436 38.5236 15.3749 37.584 15.3749H29.4011ZM15.3756 15.3749L20.5006 7.85818L25.6256 15.3749H15.3756ZM20.5006 29.0415C18.6215 29.0415 17.084 27.504 17.084 25.6248C17.084 23.7457 18.6215 22.2082 20.5006 22.2082C22.3798 22.2082 23.9173 23.7457 23.9173 25.6248C23.9173 27.504 22.3798 29.0415 20.5006 29.0415Z" fill="#212B32"/>
</svg>
